[
    {
        "scope": "http://git-awards.com:80",
        "method": "get",
        "path": "/api/v0/users",
        "body": "",
        "status": 200,
        "response": {
            "users": [
                {
                    "id": 14354665,
                    "login": "freecodecamp",
                    "gravatar_url": "https://avatars.githubusercontent.com/u/9892522?v=3",
                    "city": "san francisco",
                    "country": "united states",
                    "stars_count": 296762,
                    "city_rank": 1,
                    "country_rank": 1,
                    "world_rank": 1
                },
                {
                    "id": 5156961,
                    "login": "facebook",
                    "gravatar_url": "https://avatars.githubusercontent.com/u/69631?v=3",
                    "city": "menlo park",
                    "country": "united states",
                    "stars_count": 269189,
                    "city_rank": 1,
                    "country_rank": 2,
                    "world_rank": 2
                },
                {
                    "id": 10673069,
                    "login": "vuejs",
                    "gravatar_url": "https://avatars.githubusercontent.com/u/6128107?v=3",
                    "city": null,
                    "country": null,
                    "stars_count": 130710,
                    "city_rank": null,
                    "country_rank": null,
                    "world_rank": 3
                },
                {
                    "id": 10949229,
                    "login": "reactjs",
                    "gravatar_url": "https://avatars.githubusercontent.com/u/6412038?v=3",
                    "city": "menlo park",
                    "country": "united states",
                    "stars_count": 113431,
                    "city_rank": 2,
                    "country_rank": 3,
                    "world_rank": 4
                },
                {
                    "id": 5222943,
                    "login": "angular",
                    "gravatar_url": "https://avatars.githubusercontent.com/u/139426?v=3",
                    "city": null,
                    "country": null,
                    "stars_count": 113057,
                    "city_rank": null,
                    "country_rank": null,
                    "world_rank": 5
                },
                {
                    "id": 5742137,
                    "login": "airbnb",
                    "gravatar_url": "https://avatars.githubusercontent.com/u/698437?v=3",
                    "city": "san francisco",
                    "country": "united states",
                    "stars_count": 107937,
                    "city_rank": 2,
                    "country_rank": 4,
                    "world_rank": 6
                },
                {
                    "id": 5215536,
                    "login": "mozilla",
                    "gravatar_url": "https://avatars.githubusercontent.com/u/131524?v=3",
                    "city": "mountain view",
                    "country": "united states",
                    "stars_count": 90046,
                    "city_rank": 1,
                    "country_rank": 5,
                    "world_rank": 7
                },
                {
                    "id": 5157444,
                    "login": "jquery",
                    "gravatar_url": "https://avatars.githubusercontent.com/u/70142?v=3",
                    "city": "boston",
                    "country": "united states",
                    "stars_count": 89175,
                    "city_rank": 1,
                    "country_rank": 6,
                    "world_rank": 8
                },
                {
                    "id": 5103040,
                    "login": "substack",
                    "gravatar_url": "https://avatars.githubusercontent.com/u/12631?v=3",
                    "city": "oakland",
                    "country": "united states",
                    "stars_count": 83392,
                    "city_rank": 1,
                    "country_rank": 7,
                    "world_rank": 9
                },
                {
                    "id": 6553218,
                    "login": "d3",
                    "gravatar_url": "https://avatars.githubusercontent.com/u/1562726?v=3",
                    "city": null,
                    "country": null,
                    "stars_count": 79892,
                    "city_rank": null,
                    "country_rank": null,
                    "world_rank": 10
                },
                {
                    "id": 6692458,
                    "login": "zeit",
                    "gravatar_url": "https://avatars.githubusercontent.com/u/1715673?v=3",
                    "city": null,
                    "country": null,
                    "stars_count": 77755,
                    "city_rank": null,
                    "country_rank": null,
                    "world_rank": 11
                },
                {
                    "id": 5250753,
                    "login": "sindresorhus",
                    "gravatar_url": "https://avatars.githubusercontent.com/u/170270?v=3",
                    "city": null,
                    "country": null,
                    "stars_count": 75492,
                    "city_rank": null,
                    "country_rank": null,
                    "world_rank": 12
                },
                {
                    "id": 5921764,
                    "login": "automattic",
                    "gravatar_url": "https://avatars.githubusercontent.com/u/887802?v=3",
                    "city": "san antonio",
                    "country": "united states",
                    "stars_count": 69494,
                    "city_rank": 1,
                    "country_rank": 8,
                    "world_rank": 13
                },
                {
                    "id": 6749792,
                    "login": "googlechrome",
                    "gravatar_url": "https://avatars.githubusercontent.com/u/1778935?v=3",
                    "city": null,
                    "country": null,
                    "stars_count": 66700,
                    "city_rank": null,
                    "country_rank": null,
                    "world_rank": 14
                },
                {
                    "id": 5384787,
                    "login": "nodejs",
                    "gravatar_url": "https://avatars.githubusercontent.com/u/319357?v=3",
                    "city": null,
                    "country": null,
                    "stars_count": 61661,
                    "city_rank": null,
                    "country_rank": null,
                    "world_rank": 15
                },
                {
                    "id": 10215897,
                    "login": "expressjs",
                    "gravatar_url": "https://avatars.githubusercontent.com/u/5658226?v=3",
                    "city": null,
                    "country": null,
                    "stars_count": 59770,
                    "city_rank": null,
                    "country_rank": null,
                    "world_rank": 16
                },
                {
                    "id": 5307300,
                    "login": "mbostock",
                    "gravatar_url": "https://avatars.githubusercontent.com/u/230541?v=3",
                    "city": "san francisco",
                    "country": "united states",
                    "stars_count": 57708,
                    "city_rank": 3,
                    "country_rank": 9,
                    "world_rank": 17
                },
                {
                    "id": 5115044,
                    "login": "tj",
                    "gravatar_url": "https://avatars.githubusercontent.com/u/25254?v=3",
                    "city": "victoria",
                    "country": "canada",
                    "stars_count": 57693,
                    "city_rank": 1,
                    "country_rank": 2,
                    "world_rank": 18
                },
                {
                    "id": 6350341,
                    "login": "google",
                    "gravatar_url": "https://avatars.githubusercontent.com/u/1342004?v=3",
                    "city": null,
                    "country": null,
                    "stars_count": 54504,
                    "city_rank": null,
                    "country_rank": null,
                    "world_rank": 19
                },
                {
                    "id": 7041548,
                    "login": "webpack",
                    "gravatar_url": "https://avatars.githubusercontent.com/u/2105791?v=3",
                    "city": null,
                    "country": null,
                    "stars_count": 53291,
                    "city_rank": null,
                    "country_rank": null,
                    "world_rank": 20
                },
                {
                    "id": 5848236,
                    "login": "gaearon",
                    "gravatar_url": "https://avatars.githubusercontent.com/u/810438?v=3",
                    "city": "moscow",
                    "country": "russia",
                    "stars_count": 52360,
                    "city_rank": 1,
                    "country_rank": 1,
                    "world_rank": 21
                },
                {
                    "id": 9651367,
                    "login": "formidablelabs",
                    "gravatar_url": "https://avatars.githubusercontent.com/u/5078602?v=3",
                    "city": "seattle",
                    "country": "united states",
                    "stars_count": 51533,
                    "city_rank": 1,
                    "country_rank": 10,
                    "world_rank": 22
                },
                {
                    "id": 10063722,
                    "login": "typicode",
                    "gravatar_url": "https://avatars2.githubusercontent.com/u/5502029?v=4",
                    "city": "philadelphia",
                    "country": "united states",
                    "stars_count": 50515,
                    "city_rank": 1,
                    "country_rank": 11,
                    "world_rank": 23
                },
                {
                    "id": 5095505,
                    "login": "jashkenas",
                    "gravatar_url": "https://avatars.githubusercontent.com/u/4732?v=3",
                    "city": "new york",
                    "country": "united states",
                    "stars_count": 49542,
                    "city_rank": 1,
                    "country_rank": 12,
                    "world_rank": 24
                },
                {
                    "id": 15018144,
                    "login": "socketio",
                    "gravatar_url": "https://avatars.githubusercontent.com/u/10566080?v=3",
                    "city": null,
                    "country": null,
                    "stars_count": 48439,
                    "city_rank": null,
                    "country_rank": null,
                    "world_rank": 25
                }
            ],
            "page": 1,
            "total_pages": 35631,
            "total_count": 890771
        },
        "rawHeaders": [
            "Server",
            "nginx/1.4.6 (Ubuntu)",
            "Date",
            "Wed, 08 Nov 2017 03:19:40 GMT",
            "Content-Type",
            "application/json; charset=utf-8",
            "Transfer-Encoding",
            "chunked",
            "Connection",
            "close",
            "X-Frame-Options",
            "SAMEORIGIN",
            "X-XSS-Protection",
            "1; mode=block",
            "X-Content-Type-Options",
            "nosniff",
            "ETag",
            "W/\"168e9e2e608aea12daf38980570cce17\"",
            "Cache-Control",
            "max-age=0, private, must-revalidate",
            "X-Request-Id",
            "3ab5187d-ee51-4e8d-b875-cfefd77da195",
            "X-Runtime",
            "0.169417"
        ]
    }
]